{"data":[{"id":"865","type":"pokemon","attributes":{"name":{"english":"Sirfetch'd","japanese":"ネギガナイト","chinese":"葱游兵","french":"Palarticho"},"type":["Fighting"],"species":"Wild Duck Pokémon","description":"After deflecting attacks with its hard leaf shield, it strikes back with its sharp leek stalk. The leek stalk is both weapon and food.","evolution":{"prev":["83","achieve 3 critical hits in one battle"]},"profile":{"height":"1 m","weight":"117 kg","gender":"50.0:50.0","ability":[["Steadfast","false"],["Scrappy","true"]]},"image":{"sprite":"https://raw.githubusercontent.com/IgnaceMaes/pokemon-data.json/master/images/pokedex/sprites/865.png","thumbnail":"https://raw.githubusercontent.com/IgnaceMaes/pokemon-data.json/master/images/pokedex/thumbnails/865.png","hires":"https://raw.githubusercontent.com/IgnaceMaes/pokemon-data.json/master/images/pokedex/hires/865.png"}}},{"id":"866","type":"pokemon","attributes":{"name":{"english":"Mr. Rime","japanese":"バリコオル","chinese":"踏冰人偶","french":"M. Glaquette"},"type":["Ice","Psychic"],"species":"Comedian Pokémon","description":"Its amusing movements make it very popular. It releases its psychic power from the pattern on its belly.","evolution":{"prev":["122","Level 42"]},"profile":{"height":"1 m","weight":"58 kg","gender":"50.0:50.0","ability":[["Tangled-feet","false"],["Screen-cleaner","false"],["Ice-body","true"]]},"image":{"sprite":"https://raw.githubusercontent.com/IgnaceMaes/pokemon-data.json/master/images/pokedex/sprites/866.png","thumbnail":"https://raw.githubusercontent.com/IgnaceMaes/pokemon-data.json/master/images/pokedex/thumbnails/866.png","hires":"https://raw.githubusercontent.com/IgnaceMaes/pokemon-data.json/master/images/pokedex/hires/866.png"}}},{"id":"867","type":"pokemon","attributes":{"name":{"english":"Runerigus","japanese":"デスバーン","chinese":"死神板","french":"Tutétékri"},"type":["Ground","Ghost"],"species":"Grudge Pokémon","description":"Never touch its shadowlike body, or you’ll be shown the horrific memories behind the picture carved into it.","evolution":{"prev":["562","Level 34"]},"profile":{"height":"2 m","weight":"67 kg","gender":"50.0:50.0","ability":[["Wandering-spirit","false"]]},"image":{"sprite":"https://raw.githubusercontent.com/IgnaceMaes/pokemon-data.json/master/images/pokedex/sprites/867.png","thumbnail":"https://raw.githubusercontent.com/IgnaceMaes/pokemon-data.json/master/images/pokedex/thumbnails/867.png","hires":"https://raw.githubusercontent.com/IgnaceMaes/pokemon-data.json/master/images/pokedex/hires/867.png"}}},{"id":"868","type":"pokemon","attributes":{"name":{"english":"Milcery","japanese":"マホミル","chinese":"小仙奶","french":"Crèmy"},"type":["Fairy"],"species":"Cream Pokémon","description":"They say that any patisserie visited by Milcery is guaranteed success and good fortune.","evolution":{"next":[["869","spin around holding Sweet"]]},"profile":{"height":"0 m","weight":"0 kg","gender":"0.0:100.0","ability":[["Sweet-veil","false"],["Aroma-veil","true"]]},"image":{"sprite":"https://raw.githubusercontent.com/IgnaceMaes/pokemon-data.json/master/images/pokedex/sprites/868.png","thumbnail":"https://raw.githubusercontent.com/IgnaceMaes/pokemon-data.json/master/images/pokedex/thumbnails/868.png","hires":"https://raw.githubusercontent.com/IgnaceMaes/pokemon-data.json/master/images/pokedex/hires/868.png"}}},{"id":"869","type":"pokemon","attributes":{"name":{"english":"Alcremie","japanese":"マホイップ","chinese":"霜奶仙","french":"Charmilly"},"type":["Fairy"],"species":"Cream Pokémon","description":"When Alcremie is content, the cream it secretes from its hands becomes sweeter and richer.","evolution":{"prev":["868","spin around holding Sweet"]},"profile":{"height":"0 m","weight":"0 kg","gender":"0.0:100.0","ability":[["Sweet-veil","false"],["Aroma-veil","true"]]},"image":{"sprite":"https://raw.githubusercontent.com/IgnaceMaes/pokemon-data.json/master/images/pokedex/sprites/869.png","thumbnail":"https://raw.githubusercontent.com/IgnaceMaes/pokemon-data.json/master/images/pokedex/thumbnails/869.png","hires":"https://raw.githubusercontent.com/IgnaceMaes/pokemon-data.json/master/images/pokedex/hires/869.png"}}},{"id":"870","type":"pokemon","attributes":{"name":{"english":"Falinks","japanese":"タイレーツ","chinese":"列阵兵","french":"Hexadron"},"type":["Fighting"],"species":"Formation Pokémon","description":"The six of them work together as one Pokémon. Teamwork is also their battle strategy, and they constantly change their formation as they fight.","evolution":{},"profile":{"height":"3 m","weight":"62 kg","gender":"Genderless","ability":[["Battle-armor","false"],["Defiant","true"]]},"image":{"sprite":"https://raw.githubusercontent.com/IgnaceMaes/pokemon-data.json/master/images/pokedex/sprites/870.png","thumbnail":"https://raw.githubusercontent.com/IgnaceMaes/pokemon-data.json/master/images/pokedex/thumbnails/870.png","hires":"https://raw.githubusercontent.com/IgnaceMaes/pokemon-data.json/master/images/pokedex/hires/870.png"}}},{"id":"871","type":"pokemon","attributes":{"name":{"english":"Pincurchin","japanese":"バチンウニ","chinese":"啪嚓海胆","french":"Wattapik"},"type":["Electric"],"species":"Sea Urchin Pokémon","description":"It stores electricity in each spine. Even if one gets broken off, it still continues to emit electricity for at least three hours.","evolution":{},"profile":{"height":"0 m","weight":"1 kg","gender":"50.0:50.0","ability":[["Lightning-rod","false"],["Electric-surge","true"]]},"image":{"sprite":"https://raw.githubusercontent.com/IgnaceMaes/pokemon-data.json/master/images/pokedex/sprites/871.png","thumbnail":"https://raw.githubusercontent.com/IgnaceMaes/pokemon-data.json/master/images/pokedex/thumbnails/871.png","hires":"https://raw.githubusercontent.com/IgnaceMaes/pokemon-data.json/master/images/pokedex/hires/871.png"}}},{"id":"872","type":"pokemon","attributes":{"name":{"english":"Snom","japanese":"ユキハミ","chinese":"雪吞虫","french":"Frissonille"},"type":["Ice","Bug"],"species":"Worm Pokémon","description":"It eats snow that piles up on the ground. The more snow it eats, the bigger and more impressive the spikes on its back grow.","evolution":{"next":[["873","high "]]},"profile":{"height":"0 m","weight":"4 kg","gender":"50.0:50.0","ability":[["Shield-dust","false"],["Ice-scales","true"]]},"image":{"sprite":"https://raw.githubusercontent.com/IgnaceMaes/pokemon-data.json/master/images/pokedex/sprites/872.png","thumbnail":"https://raw.githubusercontent.com/IgnaceMaes/pokemon-data.json/master/images/pokedex/thumbnails/872.png","hires":"https://raw.githubusercontent.com/IgnaceMaes/pokemon-data.json/master/images/pokedex/hires/872.png"}}},{"id":"873","type":"pokemon","attributes":{"name":{"english":"Frosmoth","japanese":"モスノウ","chinese":"雪绒蛾","french":"Beldeneige"},"type":["Ice","Bug"],"species":"Frost Moth Pokémon","description":"It shows no mercy to any who desecrate fields and mountains. It will fly around on its icy wings, causing a blizzard to chase offenders away.","evolution":{"prev":["872","high "]},"profile":{"height":"1 m","weight":"42 kg","gender":"50.0:50.0","ability":[["Shield-dust","false"],["Ice-scales","true"]]},"image":{"sprite":"https://raw.githubusercontent.com/IgnaceMaes/pokemon-data.json/master/images/pokedex/sprites/873.png","thumbnail":"https://raw.githubusercontent.com/IgnaceMaes/pokemon-data.json/master/images/pokedex/thumbnails/873.png","hires":"https://raw.githubusercontent.com/IgnaceMaes/pokemon-data.json/master/images/pokedex/hires/873.png"}}},{"id":"874","type":"pokemon","attributes":{"name":{"english":"Stonjourner","japanese":"イシヘンジン","chinese":"巨石丁","french":"Dolman"},"type":["Rock"],"species":"Big Rock Pokémon","description":"Once a year, on a specific date and at a specific time, they gather out of nowhere and form up in a circle.","evolution":{},"profile":{"height":"2 m","weight":"520 kg","gender":"50.0:50.0","ability":[["Power-spot","false"]]},"image":{"sprite":"https://raw.githubusercontent.com/IgnaceMaes/pokemon-data.json/master/images/pokedex/sprites/874.png","thumbnail":"https://raw.githubusercontent.com/IgnaceMaes/pokemon-data.json/master/images/pokedex/thumbnails/874.png","hires":"https://raw.githubusercontent.com/IgnaceMaes/pokemon-data.json/master/images/pokedex/hires/874.png"}}},{"id":"875","type":"pokemon","attributes":{"name":{"english":"Eiscue","japanese":"コオリッポ","chinese":"冰砌鹅","french":"Bekaglaçon"},"type":["Ice"],"species":"Penguin Pokémon","description":"This Pokémon keeps its heat-sensitive head cool with ice. It fishes for its food, dangling its single hair into the sea to lure in prey.","evolution":{},"profile":{"height":"1 m","weight":"89 kg","gender":"50.0:50.0","ability":[["Ice-face","false"]]},"image":{"sprite":"https://raw.githubusercontent.com/IgnaceMaes/pokemon-data.json/master/images/pokedex/sprites/875.png","thumbnail":"https://raw.githubusercontent.com/IgnaceMaes/pokemon-data.json/master/images/pokedex/thumbnails/875.png","hires":"https://raw.githubusercontent.com/IgnaceMaes/pokemon-data.json/master/images/pokedex/hires/875.png"}}},{"id":"876","type":"pokemon","attributes":{"name":{"english":"Indeedee","japanese":"イエッサン","chinese":"爱管侍","french":"Wimessir"},"type":["Psychic","Normal"],"species":"Emotion Pokémon","description":"Through its horns, it can pick up on the emotions of creatures around it. Positive emotions are the source of its strength.","evolution":{},"profile":{"height":"1 m","weight":"28 kg","gender":"50.0:50.0","ability":[["Inner-focus","false"],["Synchronize","false"],["Psychic-surge","true"]]},"image":{"sprite":"https://raw.githubusercontent.com/IgnaceMaes/pokemon-data.json/master/images/pokedex/sprites/876.png","thumbnail":"https://raw.githubusercontent.com/IgnaceMaes/pokemon-data.json/master/images/pokedex/thumbnails/876.png","hires":"https://raw.githubusercontent.com/IgnaceMaes/pokemon-data.json/master/images/pokedex/hires/876.png"}}},{"id":"877","type":"pokemon","attributes":{"name":{"english":"Morpeko","japanese":"モルペコ","chinese":"莫鲁贝可","french":"Morpeko"},"type":["Electric","Dark"],"species":"Two-Sided Pokémon","description":"It carries electrically roasted seeds with it as if they’re precious treasures. No matter how much it eats, it always gets hungry again in short order.","evolution":{},"profile":{"height":"0 m","weight":"3 kg","gender":"50.0:50.0","ability":[["Hunger-switch","false"]]},"image":{"sprite":"https://raw.githubusercontent.com/IgnaceMaes/pokemon-data.json/master/images/pokedex/sprites/877.png","thumbnail":"https://raw.githubusercontent.com/IgnaceMaes/pokemon-data.json/master/images/pokedex/thumbnails/877.png"}}},{"id":"878","type":"pokemon","attributes":{"name":{"english":"Cufant","japanese":"ゾウドウ","chinese":"铜象","french":"Charibari"},"type":["Steel"],"species":"Copperderm Pokémon","description":"If a job requires serious strength, this Pokémon will excel at it. Its copper body tarnishes in the rain, turning a vibrant green color.","evolution":{"next":[["879","Level 34"]]},"profile":{"height":"1 m","weight":"100 kg","gender":"50.0:50.0","ability":[["Sheer-force","false"],["Heavy-metal","true"]]},"image":{"sprite":"https://raw.githubusercontent.com/IgnaceMaes/pokemon-data.json/master/images/pokedex/sprites/878.png","thumbnail":"https://raw.githubusercontent.com/IgnaceMaes/pokemon-data.json/master/images/pokedex/thumbnails/878.png","hires":"https://raw.githubusercontent.com/IgnaceMaes/pokemon-data.json/master/images/pokedex/hires/878.png"}}},{"id":"879","type":"pokemon","attributes":{"name":{"english":"Copperajah","japanese":"ダイオウドウ","chinese":"大王铜象","french":"Pachyradjah"},"type":["Steel"],"species":"Copperderm Pokémon","description":"These Pokémon live in herds. Their trunks have incredible grip strength, strong enough to crush giant rocks into powder.","evolution":{"prev":["878","Level 34"]},"profile":{"height":"3 m","weight":"650 kg","gender":"50.0:50.0","ability":[["Sheer-force","false"],["Heavy-metal","true"]]},"image":{"sprite":"https://raw.githubusercontent.com/IgnaceMaes/pokemon-data.json/master/images/pokedex/sprites/879.png","thumbnail":"https://raw.githubusercontent.com/IgnaceMaes/pokemon-data.json/master/images/pokedex/thumbnails/879.png","hires":"https://raw.githubusercontent.com/IgnaceMaes/pokemon-data.json/master/images/pokedex/hires/879.png"}}},{"id":"880","type":"pokemon","attributes":{"name":{"english":"Dracozolt","japanese":"パッチラゴン","chinese":"雷鸟龙","french":"Galvagon"},"type":["Electric","Dragon"],"species":"Fossil Pokémon","description":"The powerful muscles in its tail generate its electricity. Compared to its lower body, its upper half is entirely too small.","evolution":{},"profile":{"height":"2 m","weight":"190 kg","gender":"Genderless","ability":[["Volt-absorb","false"],["Hustle","false"],["Sand-rush","true"]]},"image":{"sprite":"https://raw.githubusercontent.com/IgnaceMaes/pokemon-data.json/master/images/pokedex/sprites/880.png","thumbnail":"https://raw.githubusercontent.com/IgnaceMaes/pokemon-data.json/master/images/pokedex/thumbnails/880.png","hires":"https://raw.githubusercontent.com/IgnaceMaes/pokemon-data.json/master/images/pokedex/hires/880.png"}}},{"id":"881","type":"pokemon","attributes":{"name":{"english":"Arctozolt","japanese":"パッチルドン","chinese":"雷鸟海兽","french":"Galvagla"},"type":["Electric","Ice"],"species":"Fossil Pokémon","description":"This Pokémon lived on prehistoric seashores and was able to preserve food with the ice on its body. It went extinct because it moved so slowly.","evolution":{},"profile":{"height":"2 m","weight":"150 kg","gender":"Genderless","ability":[["Volt-absorb","false"],["Static","false"],["Slush-rush","true"]]},"image":{"sprite":"https://raw.githubusercontent.com/IgnaceMaes/pokemon-data.json/master/images/pokedex/sprites/881.png","thumbnail":"https://raw.githubusercontent.com/IgnaceMaes/pokemon-data.json/master/images/pokedex/thumbnails/881.png","hires":"https://raw.githubusercontent.com/IgnaceMaes/pokemon-data.json/master/images/pokedex/hires/881.png"}}},{"id":"882","type":"pokemon","attributes":{"name":{"english":"Dracovish","japanese":"ウオノラゴン","chinese":"鳃鱼龙","french":"Hydragon"},"type":["Water","Dragon"],"species":"Fossil Pokémon","description":"Its mighty legs are capable of running at speeds exceeding 40 mph, but this Pokémon can’t breathe unless it’s underwater.","evolution":{},"profile":{"height":"2 m","weight":"215 kg","gender":"Genderless","ability":[["Water-absorb","false"],["Strong-jaw","false"],["Sand-rush","true"]]},"image":{"sprite":"https://raw.githubusercontent.com/IgnaceMaes/pokemon-data.json/master/images/pokedex/sprites/882.png","thumbnail":"https://raw.githubusercontent.com/IgnaceMaes/pokemon-data.json/master/images/pokedex/thumbnails/882.png","hires":"https://raw.githubusercontent.com/IgnaceMaes/pokemon-data.json/master/images/pokedex/hires/882.png"}}},{"id":"883","type":"pokemon","attributes":{"name":{"english":"Arctovish","japanese":"ウオチルドン","chinese":"鳃鱼海兽","french":"Hydragla"},"type":["Water","Ice"],"species":"Fossil Pokémon","description":"The skin on its face is impervious to attack, but breathing difficulties made this Pokémon go extinct anyway.","evolution":{},"profile":{"height":"2 m","weight":"175 kg","gender":"Genderless","ability":[["Water-absorb","false"],["Ice-body","false"],["Slush-rush","true"]]},"image":{"sprite":"https://raw.githubusercontent.com/IgnaceMaes/pokemon-data.json/master/images/pokedex/sprites/883.png","thumbnail":"https://raw.githubusercontent.com/IgnaceMaes/pokemon-data.json/master/images/pokedex/thumbnails/883.png","hires":"https://raw.githubusercontent.com/IgnaceMaes/pokemon-data.json/master/images/pokedex/hires/883.png"}}},{"id":"884","type":"pokemon","attributes":{"name":{"english":"Duraludon","japanese":"ジュラルドン","chinese":"铝钢龙","french":"Duralugon"},"type":["Steel","Dragon"],"species":"Alloy Pokémon","description":"The special metal that composes its body is very light, so this Pokémon has considerable agility. It lives in caves because it dislikes the rain.","evolution":{},"profile":{"height":"2 m","weight":"40 kg","gender":"50.0:50.0","ability":[["Light-metal","false"],["Heavy-metal","false"],["Stalwart","true"]]},"image":{"sprite":"https://raw.githubusercontent.com/IgnaceMaes/pokemon-data.json/master/images/pokedex/sprites/884.png","thumbnail":"https://raw.githubusercontent.com/IgnaceMaes/pokemon-data.json/master/images/pokedex/thumbnails/884.png","hires":"https://raw.githubusercontent.com/IgnaceMaes/pokemon-data.json/master/images/pokedex/hires/884.png"}}},{"id":"885","type":"pokemon","attributes":{"name":{"english":"Dreepy","japanese":"ドラメシヤ","chinese":"多龙梅西亚","french":"Fantyrm"},"type":["Dragon","Ghost"],"species":"Lingering Pokémon","description":"If this weak Pokémon is by itself, a mere child could defeat it. But if Dreepy has friends to help it train, it can evolve and become much stronger.","evolution":{"next":[["886","Level 50"]]},"profile":{"height":"1 m","weight":"2 kg","gender":"50.0:50.0","ability":[["Clear-body","false"],["Infiltrator","false"],["Cursed-body","true"]]},"image":{"sprite":"https://raw.githubusercontent.com/IgnaceMaes/pokemon-data.json/master/images/pokedex/sprites/885.png","thumbnail":"https://raw.githubusercontent.com/IgnaceMaes/pokemon-data.json/master/images/pokedex/thumbnails/885.png","hires":"https://raw.githubusercontent.com/IgnaceMaes/pokemon-data.json/master/images/pokedex/hires/885.png"}}},{"id":"886","type":"pokemon","attributes":{"name":{"english":"Drakloak","japanese":"ドロンチ","chinese":"多龙奇","french":"Dispareptil"},"type":["Dragon","Ghost"],"species":"Caretaker Pokémon","description":"Without a Dreepy to place on its head and care for, it gets so uneasy it’ll try to substitute any Pokémon it finds for the missing Dreepy.","evolution":{"prev":["885","Level 50"],"next":[["887","Level 60"]]},"profile":{"height":"1 m","weight":"11 kg","gender":"50.0:50.0","ability":[["Clear-body","false"],["Infiltrator","false"],["Cursed-body","true"]]},"image":{"sprite":"https://raw.githubusercontent.com/IgnaceMaes/pokemon-data.json/master/images/pokedex/sprites/886.png","thumbnail":"https://raw.githubusercontent.com/IgnaceMaes/pokemon-data.json/master/images/pokedex/thumbnails/886.png","hires":"https://raw.githubusercontent.com/IgnaceMaes/pokemon-data.json/master/images/pokedex/hires/886.png"}}},{"id":"887","type":"pokemon","attributes":{"name":{"english":"Dragapult","japanese":"ドラパルト","chinese":"多龙巴鲁托","french":"Lanssorien"},"type":["Dragon","Ghost"],"species":"Stealth Pokémon","description":"Apparently the Dreepy inside Dragapult’s horns eagerly look forward to being launched out at Mach speeds.","evolution":{"prev":["886","Level 60"]},"profile":{"height":"3 m","weight":"50 kg","gender":"50.0:50.0","ability":[["Clear-body","false"],["Infiltrator","false"],["Cursed-body","true"]]},"image":{"sprite":"https://raw.githubusercontent.com/IgnaceMaes/pokemon-data.json/master/images/pokedex/sprites/887.png","thumbnail":"https://raw.githubusercontent.com/IgnaceMaes/pokemon-data.json/master/images/pokedex/thumbnails/887.png","hires":"https://raw.githubusercontent.com/IgnaceMaes/pokemon-data.json/master/images/pokedex/hires/887.png"}}},{"id":"888","type":"pokemon","attributes":{"name":{"english":"Zacian","japanese":"ザシアン","chinese":"苍响","french":"Zacian"},"type":["Fairy"],"species":"Warrior Pokémon","description":"This Pokémon has slumbered for many years. Some say it’s Zamazenta’s elder sister—others say the two Pokémon are rivals.","evolution":{},"profile":{"height":"3 m","weight":"110 kg","gender":"Genderless","ability":[["Intrepid-sword","false"]]},"image":{"sprite":"https://raw.githubusercontent.com/IgnaceMaes/pokemon-data.json/master/images/pokedex/sprites/888.png","thumbnail":"https://raw.githubusercontent.com/IgnaceMaes/pokemon-data.json/master/images/pokedex/thumbnails/888.png","hires":"https://raw.githubusercontent.com/IgnaceMaes/pokemon-data.json/master/images/pokedex/hires/888.png"}}},{"id":"889","type":"pokemon","attributes":{"name":{"english":"Zamazenta","japanese":"ザマゼンタ","chinese":"藏玛然特","french":"Zamazent"},"type":["Fighting"],"species":"Warrior Pokémon","description":"This Pokémon slept for aeons while in the form of a statue. It was asleep for so long, people forgot that it ever existed.","evolution":{},"profile":{"height":"3 m","weight":"210 kg","gender":"Genderless","ability":[["Dauntless-shield","false"]]},"image":{"sprite":"https://raw.githubusercontent.com/IgnaceMaes/pokemon-data.json/master/images/pokedex/sprites/889.png","thumbnail":"https://raw.githubusercontent.com/IgnaceMaes/pokemon-data.json/master/images/pokedex/thumbnails/889.png","hires":"https://raw.githubusercontent.com/IgnaceMaes/pokemon-data.json/master/images/pokedex/hires/889.png"}}},{"id":"890","type":"pokemon","attributes":{"name":{"english":"Eternatus","japanese":"ムゲンダイナ","chinese":"无极汰那","french":"Éthernatos"},"type":["Poison","Dragon"],"species":"Gigantic Pokémon","description":"It was inside a meteorite that fell 20,000 years ago. There seems to be a connection between this Pokémon and the Dynamax phenomenon.","evolution":{},"profile":{"height":"20 m","weight":"950 kg","gender":"Genderless","ability":[["Pressure","false"]]},"image":{"sprite":"https://raw.githubusercontent.com/IgnaceMaes/pokemon-data.json/master/images/pokedex/sprites/890.png","thumbnail":"https://raw.githubusercontent.com/IgnaceMaes/pokemon-data.json/master/images/pokedex/thumbnails/890.png","hires":"https://raw.githubusercontent.com/IgnaceMaes/pokemon-data.json/master/images/pokedex/hires/890.png"}}},{"id":"891","type":"pokemon","attributes":{"name":{"english":"Kubfu","japanese":"ダクマ","chinese":"熊徒弟","french":"Wushours"},"type":["Fighting"],"species":"Wushu Pokémon","description":"If Kubfu pulls the long white hair on its head, its fighting spirit heightens and power wells up from the depths of its belly.","evolution":{"next":[["892","Scroll of Darkness"],["892","Scroll of Waters"]]},"profile":{"height":"1 m","weight":"12 kg","gender":"87.5:12.5","ability":[["Inner-focus","false"]]},"image":{"sprite":"https://raw.githubusercontent.com/IgnaceMaes/pokemon-data.json/master/images/pokedex/sprites/891.png","thumbnail":"https://raw.githubusercontent.com/IgnaceMaes/pokemon-data.json/master/images/pokedex/thumbnails/891.png","hires":"https://raw.githubusercontent.com/IgnaceMaes/pokemon-data.json/master/images/pokedex/hires/891.png"}}},{"id":"892","type":"pokemon","attributes":{"name":{"english":"Urshifu","japanese":"ウーラオス","chinese":"武道熊师","french":"Shifours"},"type":["Fighting","Dark"],"species":"Wushu Pokémon","description":"Inhabiting the mountains of a distant region, this Pokémon races across sheer cliffs, training its legs and refining its moves.","evolution":{"prev":["892","Scroll of Darkness"]},"profile":{"height":"2 m","weight":"105 kg","gender":"87.5:12.5","ability":[["Unseen-fist","false"]]},"image":{"sprite":"https://raw.githubusercontent.com/IgnaceMaes/pokemon-data.json/master/images/pokedex/sprites/892.png","thumbnail":"https://raw.githubusercontent.com/IgnaceMaes/pokemon-data.json/master/images/pokedex/thumbnails/892.png","hires":"https://raw.githubusercontent.com/IgnaceMaes/pokemon-data.json/master/images/pokedex/hires/892.png"}}},{"id":"893","type":"pokemon","attributes":{"name":{"english":"Zarude","japanese":"ザルード","chinese":"萨戮德","french":"Zarude"},"type":["Dark","Grass"],"species":"Rogue Monkey Pokémon","description":"Once the vines on Zarude’s body tear off, they become nutrients in the soil. This helps the plants of the forest grow.","evolution":{},"profile":{"height":"2 m","weight":"70 kg","gender":"Genderless","ability":[["Leaf-guard","false"]]},"image":{"sprite":"https://raw.githubusercontent.com/IgnaceMaes/pokemon-data.json/master/images/pokedex/sprites/893.png","thumbnail":"https://raw.githubusercontent.com/IgnaceMaes/pokemon-data.json/master/images/pokedex/thumbnails/893.png","hires":"https://raw.githubusercontent.com/IgnaceMaes/pokemon-data.json/master/images/pokedex/hires/893.png"}}},{"id":"894","type":"pokemon","attributes":{"name":{"english":"Regieleki","japanese":"レジエレキ","chinese":"雷吉艾勒奇","french":"Regieleki"},"type":["Electric"],"species":"Electron Pokémon","description":"Its entire body is made up of a single organ that generates electrical energy. Regieleki is capable of creating all Galar’s electricity.","evolution":{},"profile":{"height":"1 m","weight":"145 kg","gender":"Genderless","ability":[["Transistor","false"]]},"image":{"sprite":"https://raw.githubusercontent.com/IgnaceMaes/pokemon-data.json/master/images/pokedex/sprites/894.png","thumbnail":"https://raw.githubusercontent.com/IgnaceMaes/pokemon-data.json/master/images/pokedex/thumbnails/894.png","hires":"https://raw.githubusercontent.com/IgnaceMaes/pokemon-data.json/master/images/pokedex/hires/894.png"}}},{"id":"895","type":"pokemon","attributes":{"name":{"english":"Regidrago","japanese":"レジドラゴ","chinese":"雷吉铎拉戈","french":"Regidrago"},"type":["Dragon"],"species":"Dragon Orb Pokémon","description":"Its body is composed of crystallized dragon energy. Regidrago is said to have the powers of every dragon Pokémon.","evolution":{},"profile":{"height":"2 m","weight":"200 kg","gender":"Genderless","ability":[["Dragons-maw","false"]]},"image":{"sprite":"https://raw.githubusercontent.com/IgnaceMaes/pokemon-data.json/master/images/pokedex/sprites/895.png","thumbnail":"https://raw.githubusercontent.com/IgnaceMaes/pokemon-data.json/master/images/pokedex/thumbnails/895.png","hires":"https://raw.githubusercontent.com/IgnaceMaes/pokemon-data.json/master/images/pokedex/hires/895.png"}}},{"id":"896","type":"pokemon","attributes":{"name":{"english":"Glastrier","japanese":"ブリザポス","chinese":"雪暴马","french":"Blizzeval"},"type":["Ice"],"species":"Wild Horse Pokémon","description":"Glastrier has tremendous physical strength, and the mask of ice covering its face is 100 times harder than diamond.","evolution":{},"profile":{"height":"2 m","weight":"800 kg","gender":"Genderless","ability":[["Chilling-neigh","false"]]},"image":{"sprite":"https://raw.githubusercontent.com/IgnaceMaes/pokemon-data.json/master/images/pokedex/sprites/896.png","thumbnail":"https://raw.githubusercontent.com/IgnaceMaes/pokemon-data.json/master/images/pokedex/thumbnails/896.png","hires":"https://raw.githubusercontent.com/IgnaceMaes/pokemon-data.json/master/images/pokedex/hires/896.png"}}},{"id":"897","type":"pokemon","attributes":{"name":{"english":"Spectrier","japanese":"レイスポス","chinese":"灵幽马","french":"Spectreval"},"type":["Ghost"],"species":"Swift Horse Pokémon","description":"As it dashes through the night, Spectrier absorbs the life-force of sleeping creatures. It craves silence and solitude.","evolution":{},"profile":{"height":"2 m","weight":"44 kg","gender":"Genderless","ability":[["Grim-neigh","false"]]},"image":{"sprite":"https://raw.githubusercontent.com/IgnaceMaes/pokemon-data.json/master/images/pokedex/sprites/897.png","thumbnail":"https://raw.githubusercontent.com/IgnaceMaes/pokemon-data.json/master/images/pokedex/thumbnails/897.png","hires":"https://raw.githubusercontent.com/IgnaceMaes/pokemon-data.json/master/images/pokedex/hires/897.png"}}},{"id":"898","type":"pokemon","attributes":{"name":{"english":"Calyrex","japanese":"バドレックス","chinese":"蕾冠王","french":"Sylveroy"},"type":["Psychic","Grass"],"species":"King Pokémon","description":"Calyrex is known in legend as a king that ruled over Galar in ancient times. It has the power to cause hearts to mend and plants to spring forth.","evolution":{},"profile":{"height":"1 m","weight":"8 kg","gender":"Genderless","ability":[["Unnerve","false"]]},"image":{"sprite":"https://raw.githubusercontent.com/IgnaceMaes/pokemon-data.json/master/images/pokedex/sprites/898.png","thumbnail":"https://raw.githubusercontent.com/IgnaceMaes/pokemon-data.json/master/images/pokedex/thumbnails/898.png","hires":"https://raw.githubusercontent.com/IgnaceMaes/pokemon-data.json/master/images/pokedex/hires/898.png"}}}],"meta":{"currentPage":19,"totalPages":19,"total":898,"estimatedTotal":898,"page":{"size":34,"total":898,"estimatedTotal":898}},"links":{"self":"/api/pokemon/list/19.json","prev":"/api/pokemon/list/18.json","next":null,"first":"/api/pokemon/list/1.json","last":"/api/pokemon/list/19.json"}}