{
  "data": [
      {
          "id": 881,
          "name": {
              "english": "Arctozolt",
              "japanese": "パッチルドン",
              "chinese": "雷鸟海兽",
              "french": "Galvagla"
          },
          "type": [
              "Electric",
              "Ice"
          ],
          "species": "Fossil Pokémon",
          "description": "This Pokémon lived on prehistoric seashores and was able to preserve food with the ice on its body. It went extinct because it moved so slowly.",
          "evolution": {},
          "profile": {
              "height": "2 m",
              "weight": "150 kg",
              "gender": "Genderless",
              "ability": [
                  [
                      "Volt-absorb",
                      "false"
                  ],
                  [
                      "Static",
                      "false"
                  ],
                  [
                      "Slush-rush",
                      "true"
                  ]
              ]
          },
          "image": {
              "sprite": "https://raw.githubusercontent.com/IgnaceMaes/pokemon-data.json/master/images/pokedex/sprites/881.png",
              "thumbnail": "https://raw.githubusercontent.com/IgnaceMaes/pokemon-data.json/master/images/pokedex/thumbnails/881.png",
              "hires": "https://raw.githubusercontent.com/IgnaceMaes/pokemon-data.json/master/images/pokedex/hires/881.png"
          }
      },
      {
          "id": 882,
          "name": {
              "english": "Dracovish",
              "japanese": "ウオノラゴン",
              "chinese": "鳃鱼龙",
              "french": "Hydragon"
          },
          "type": [
              "Water",
              "Dragon"
          ],
          "species": "Fossil Pokémon",
          "description": "Its mighty legs are capable of running at speeds exceeding 40 mph, but this Pokémon can’t breathe unless it’s underwater.",
          "evolution": {},
          "profile": {
              "height": "2 m",
              "weight": "215 kg",
              "gender": "Genderless",
              "ability": [
                  [
                      "Water-absorb",
                      "false"
                  ],
                  [
                      "Strong-jaw",
                      "false"
                  ],
                  [
                      "Sand-rush",
                      "true"
                  ]
              ]
          },
          "image": {
              "sprite": "https://raw.githubusercontent.com/IgnaceMaes/pokemon-data.json/master/images/pokedex/sprites/882.png",
              "thumbnail": "https://raw.githubusercontent.com/IgnaceMaes/pokemon-data.json/master/images/pokedex/thumbnails/882.png",
              "hires": "https://raw.githubusercontent.com/IgnaceMaes/pokemon-data.json/master/images/pokedex/hires/882.png"
          }
      },
      {
          "id": 883,
          "name": {
              "english": "Arctovish",
              "japanese": "ウオチルドン",
              "chinese": "鳃鱼海兽",
              "french": "Hydragla"
          },
          "type": [
              "Water",
              "Ice"
          ],
          "species": "Fossil Pokémon",
          "description": "The skin on its face is impervious to attack, but breathing difficulties made this Pokémon go extinct anyway.",
          "evolution": {},
          "profile": {
              "height": "2 m",
              "weight": "175 kg",
              "gender": "Genderless",
              "ability": [
                  [
                      "Water-absorb",
                      "false"
                  ],
                  [
                      "Ice-body",
                      "false"
                  ],
                  [
                      "Slush-rush",
                      "true"
                  ]
              ]
          },
          "image": {
              "sprite": "https://raw.githubusercontent.com/IgnaceMaes/pokemon-data.json/master/images/pokedex/sprites/883.png",
              "thumbnail": "https://raw.githubusercontent.com/IgnaceMaes/pokemon-data.json/master/images/pokedex/thumbnails/883.png",
              "hires": "https://raw.githubusercontent.com/IgnaceMaes/pokemon-data.json/master/images/pokedex/hires/883.png"
          }
      },
      {
          "id": 884,
          "name": {
              "english": "Duraludon",
              "japanese": "ジュラルドン",
              "chinese": "铝钢龙",
              "french": "Duralugon"
          },
          "type": [
              "Steel",
              "Dragon"
          ],
          "species": "Alloy Pokémon",
          "description": "The special metal that composes its body is very light, so this Pokémon has considerable agility. It lives in caves because it dislikes the rain.",
          "evolution": {},
          "profile": {
              "height": "2 m",
              "weight": "40 kg",
              "gender": "50.0:50.0",
              "ability": [
                  [
                      "Light-metal",
                      "false"
                  ],
                  [
                      "Heavy-metal",
                      "false"
                  ],
                  [
                      "Stalwart",
                      "true"
                  ]
              ]
          },
          "image": {
              "sprite": "https://raw.githubusercontent.com/IgnaceMaes/pokemon-data.json/master/images/pokedex/sprites/884.png",
              "thumbnail": "https://raw.githubusercontent.com/IgnaceMaes/pokemon-data.json/master/images/pokedex/thumbnails/884.png",
              "hires": "https://raw.githubusercontent.com/IgnaceMaes/pokemon-data.json/master/images/pokedex/hires/884.png"
          }
      },
      {
          "id": 885,
          "name": {
              "english": "Dreepy",
              "japanese": "ドラメシヤ",
              "chinese": "多龙梅西亚",
              "french": "Fantyrm"
          },
          "type": [
              "Dragon",
              "Ghost"
          ],
          "species": "Lingering Pokémon",
          "description": "If this weak Pokémon is by itself, a mere child could defeat it. But if Dreepy has friends to help it train, it can evolve and become much stronger.",
          "evolution": {
              "next": [
                  [
                      "886",
                      "Level 50"
                  ]
              ]
          },
          "profile": {
              "height": "1 m",
              "weight": "2 kg",
              "gender": "50.0:50.0",
              "ability": [
                  [
                      "Clear-body",
                      "false"
                  ],
                  [
                      "Infiltrator",
                      "false"
                  ],
                  [
                      "Cursed-body",
                      "true"
                  ]
              ]
          },
          "image": {
              "sprite": "https://raw.githubusercontent.com/IgnaceMaes/pokemon-data.json/master/images/pokedex/sprites/885.png",
              "thumbnail": "https://raw.githubusercontent.com/IgnaceMaes/pokemon-data.json/master/images/pokedex/thumbnails/885.png",
              "hires": "https://raw.githubusercontent.com/IgnaceMaes/pokemon-data.json/master/images/pokedex/hires/885.png"
          }
      },
      {
          "id": 886,
          "name": {
              "english": "Drakloak",
              "japanese": "ドロンチ",
              "chinese": "多龙奇",
              "french": "Dispareptil"
          },
          "type": [
              "Dragon",
              "Ghost"
          ],
          "species": "Caretaker Pokémon",
          "description": "Without a Dreepy to place on its head and care for, it gets so uneasy it’ll try to substitute any Pokémon it finds for the missing Dreepy.",
          "evolution": {
              "prev": [
                  "885",
                  "Level 50"
              ],
              "next": [
                  [
                      "887",
                      "Level 60"
                  ]
              ]
          },
          "profile": {
              "height": "1 m",
              "weight": "11 kg",
              "gender": "50.0:50.0",
              "ability": [
                  [
                      "Clear-body",
                      "false"
                  ],
                  [
                      "Infiltrator",
                      "false"
                  ],
                  [
                      "Cursed-body",
                      "true"
                  ]
              ]
          },
          "image": {
              "sprite": "https://raw.githubusercontent.com/IgnaceMaes/pokemon-data.json/master/images/pokedex/sprites/886.png",
              "thumbnail": "https://raw.githubusercontent.com/IgnaceMaes/pokemon-data.json/master/images/pokedex/thumbnails/886.png",
              "hires": "https://raw.githubusercontent.com/IgnaceMaes/pokemon-data.json/master/images/pokedex/hires/886.png"
          }
      },
      {
          "id": 887,
          "name": {
              "english": "Dragapult",
              "japanese": "ドラパルト",
              "chinese": "多龙巴鲁托",
              "french": "Lanssorien"
          },
          "type": [
              "Dragon",
              "Ghost"
          ],
          "species": "Stealth Pokémon",
          "description": "Apparently the Dreepy inside Dragapult’s horns eagerly look forward to being launched out at Mach speeds.",
          "evolution": {
              "prev": [
                  "886",
                  "Level 60"
              ]
          },
          "profile": {
              "height": "3 m",
              "weight": "50 kg",
              "gender": "50.0:50.0",
              "ability": [
                  [
                      "Clear-body",
                      "false"
                  ],
                  [
                      "Infiltrator",
                      "false"
                  ],
                  [
                      "Cursed-body",
                      "true"
                  ]
              ]
          },
          "image": {
              "sprite": "https://raw.githubusercontent.com/IgnaceMaes/pokemon-data.json/master/images/pokedex/sprites/887.png",
              "thumbnail": "https://raw.githubusercontent.com/IgnaceMaes/pokemon-data.json/master/images/pokedex/thumbnails/887.png",
              "hires": "https://raw.githubusercontent.com/IgnaceMaes/pokemon-data.json/master/images/pokedex/hires/887.png"
          }
      },
      {
          "id": 888,
          "name": {
              "english": "Zacian",
              "japanese": "ザシアン",
              "chinese": "苍响",
              "french": "Zacian"
          },
          "type": [
              "Fairy"
          ],
          "species": "Warrior Pokémon",
          "description": "This Pokémon has slumbered for many years. Some say it’s Zamazenta’s elder sister—others say the two Pokémon are rivals.",
          "evolution": {},
          "profile": {
              "height": "3 m",
              "weight": "110 kg",
              "gender": "Genderless",
              "ability": [
                  [
                      "Intrepid-sword",
                      "false"
                  ]
              ]
          },
          "image": {
              "sprite": "https://raw.githubusercontent.com/IgnaceMaes/pokemon-data.json/master/images/pokedex/sprites/888.png",
              "thumbnail": "https://raw.githubusercontent.com/IgnaceMaes/pokemon-data.json/master/images/pokedex/thumbnails/888.png",
              "hires": "https://raw.githubusercontent.com/IgnaceMaes/pokemon-data.json/master/images/pokedex/hires/888.png"
          }
      },
      {
          "id": 889,
          "name": {
              "english": "Zamazenta",
              "japanese": "ザマゼンタ",
              "chinese": "藏玛然特",
              "french": "Zamazent"
          },
          "type": [
              "Fighting"
          ],
          "species": "Warrior Pokémon",
          "description": "This Pokémon slept for aeons while in the form of a statue. It was asleep for so long, people forgot that it ever existed.",
          "evolution": {},
          "profile": {
              "height": "3 m",
              "weight": "210 kg",
              "gender": "Genderless",
              "ability": [
                  [
                      "Dauntless-shield",
                      "false"
                  ]
              ]
          },
          "image": {
              "sprite": "https://raw.githubusercontent.com/IgnaceMaes/pokemon-data.json/master/images/pokedex/sprites/889.png",
              "thumbnail": "https://raw.githubusercontent.com/IgnaceMaes/pokemon-data.json/master/images/pokedex/thumbnails/889.png",
              "hires": "https://raw.githubusercontent.com/IgnaceMaes/pokemon-data.json/master/images/pokedex/hires/889.png"
          }
      },
      {
          "id": 890,
          "name": {
              "english": "Eternatus",
              "japanese": "ムゲンダイナ",
              "chinese": "无极汰那",
              "french": "Éthernatos"
          },
          "type": [
              "Poison",
              "Dragon"
          ],
          "species": "Gigantic Pokémon",
          "description": "It was inside a meteorite that fell 20,000 years ago. There seems to be a connection between this Pokémon and the Dynamax phenomenon.",
          "evolution": {},
          "profile": {
              "height": "20 m",
              "weight": "950 kg",
              "gender": "Genderless",
              "ability": [
                  [
                      "Pressure",
                      "false"
                  ]
              ]
          },
          "image": {
              "sprite": "https://raw.githubusercontent.com/IgnaceMaes/pokemon-data.json/master/images/pokedex/sprites/890.png",
              "thumbnail": "https://raw.githubusercontent.com/IgnaceMaes/pokemon-data.json/master/images/pokedex/thumbnails/890.png",
              "hires": "https://raw.githubusercontent.com/IgnaceMaes/pokemon-data.json/master/images/pokedex/hires/890.png"
          }
      },
      {
          "id": 891,
          "name": {
              "english": "Kubfu",
              "japanese": "ダクマ",
              "chinese": "熊徒弟",
              "french": "Wushours"
          },
          "type": [
              "Fighting"
          ],
          "species": "Wushu Pokémon",
          "description": "If Kubfu pulls the long white hair on its head, its fighting spirit heightens and power wells up from the depths of its belly.",
          "evolution": {
              "next": [
                  [
                      "892",
                      "Scroll of Darkness"
                  ],
                  [
                      "892",
                      "Scroll of Waters"
                  ]
              ]
          },
          "profile": {
              "height": "1 m",
              "weight": "12 kg",
              "gender": "87.5:12.5",
              "ability": [
                  [
                      "Inner-focus",
                      "false"
                  ]
              ]
          },
          "image": {
              "sprite": "https://raw.githubusercontent.com/IgnaceMaes/pokemon-data.json/master/images/pokedex/sprites/891.png",
              "thumbnail": "https://raw.githubusercontent.com/IgnaceMaes/pokemon-data.json/master/images/pokedex/thumbnails/891.png",
              "hires": "https://raw.githubusercontent.com/IgnaceMaes/pokemon-data.json/master/images/pokedex/hires/891.png"
          }
      },
      {
          "id": 892,
          "name": {
              "english": "Urshifu",
              "japanese": "ウーラオス",
              "chinese": "武道熊师",
              "french": "Shifours"
          },
          "type": [
              "Fighting",
              "Dark"
          ],
          "species": "Wushu Pokémon",
          "description": "Inhabiting the mountains of a distant region, this Pokémon races across sheer cliffs, training its legs and refining its moves.",
          "evolution": {
              "prev": [
                  "892",
                  "Scroll of Darkness"
              ]
          },
          "profile": {
              "height": "2 m",
              "weight": "105 kg",
              "gender": "87.5:12.5",
              "ability": [
                  [
                      "Unseen-fist",
                      "false"
                  ]
              ]
          },
          "image": {
              "sprite": "https://raw.githubusercontent.com/IgnaceMaes/pokemon-data.json/master/images/pokedex/sprites/892.png",
              "thumbnail": "https://raw.githubusercontent.com/IgnaceMaes/pokemon-data.json/master/images/pokedex/thumbnails/892.png",
              "hires": "https://raw.githubusercontent.com/IgnaceMaes/pokemon-data.json/master/images/pokedex/hires/892.png"
          }
      },
      {
          "id": 893,
          "name": {
              "english": "Zarude",
              "japanese": "ザルード",
              "chinese": "萨戮德",
              "french": "Zarude"
          },
          "type": [
              "Dark",
              "Grass"
          ],
          "species": "Rogue Monkey Pokémon",
          "description": "Once the vines on Zarude’s body tear off, they become nutrients in the soil. This helps the plants of the forest grow.",
          "evolution": {},
          "profile": {
              "height": "2 m",
              "weight": "70 kg",
              "gender": "Genderless",
              "ability": [
                  [
                      "Leaf-guard",
                      "false"
                  ]
              ]
          },
          "image": {
              "sprite": "https://raw.githubusercontent.com/IgnaceMaes/pokemon-data.json/master/images/pokedex/sprites/893.png",
              "thumbnail": "https://raw.githubusercontent.com/IgnaceMaes/pokemon-data.json/master/images/pokedex/thumbnails/893.png",
              "hires": "https://raw.githubusercontent.com/IgnaceMaes/pokemon-data.json/master/images/pokedex/hires/893.png"
          }
      },
      {
          "id": 894,
          "name": {
              "english": "Regieleki",
              "japanese": "レジエレキ",
              "chinese": "雷吉艾勒奇",
              "french": "Regieleki"
          },
          "type": [
              "Electric"
          ],
          "species": "Electron Pokémon",
          "description": "Its entire body is made up of a single organ that generates electrical energy. Regieleki is capable of creating all Galar’s electricity.",
          "evolution": {},
          "profile": {
              "height": "1 m",
              "weight": "145 kg",
              "gender": "Genderless",
              "ability": [
                  [
                      "Transistor",
                      "false"
                  ]
              ]
          },
          "image": {
              "sprite": "https://raw.githubusercontent.com/IgnaceMaes/pokemon-data.json/master/images/pokedex/sprites/894.png",
              "thumbnail": "https://raw.githubusercontent.com/IgnaceMaes/pokemon-data.json/master/images/pokedex/thumbnails/894.png",
              "hires": "https://raw.githubusercontent.com/IgnaceMaes/pokemon-data.json/master/images/pokedex/hires/894.png"
          }
      },
      {
          "id": 895,
          "name": {
              "english": "Regidrago",
              "japanese": "レジドラゴ",
              "chinese": "雷吉铎拉戈",
              "french": "Regidrago"
          },
          "type": [
              "Dragon"
          ],
          "species": "Dragon Orb Pokémon",
          "description": "Its body is composed of crystallized dragon energy. Regidrago is said to have the powers of every dragon Pokémon.",
          "evolution": {},
          "profile": {
              "height": "2 m",
              "weight": "200 kg",
              "gender": "Genderless",
              "ability": [
                  [
                      "Dragons-maw",
                      "false"
                  ]
              ]
          },
          "image": {
              "sprite": "https://raw.githubusercontent.com/IgnaceMaes/pokemon-data.json/master/images/pokedex/sprites/895.png",
              "thumbnail": "https://raw.githubusercontent.com/IgnaceMaes/pokemon-data.json/master/images/pokedex/thumbnails/895.png",
              "hires": "https://raw.githubusercontent.com/IgnaceMaes/pokemon-data.json/master/images/pokedex/hires/895.png"
          }
      },
      {
          "id": 896,
          "name": {
              "english": "Glastrier",
              "japanese": "ブリザポス",
              "chinese": "雪暴马",
              "french": "Blizzeval"
          },
          "type": [
              "Ice"
          ],
          "species": "Wild Horse Pokémon",
          "description": "Glastrier has tremendous physical strength, and the mask of ice covering its face is 100 times harder than diamond.",
          "evolution": {},
          "profile": {
              "height": "2 m",
              "weight": "800 kg",
              "gender": "Genderless",
              "ability": [
                  [
                      "Chilling-neigh",
                      "false"
                  ]
              ]
          },
          "image": {
              "sprite": "https://raw.githubusercontent.com/IgnaceMaes/pokemon-data.json/master/images/pokedex/sprites/896.png",
              "thumbnail": "https://raw.githubusercontent.com/IgnaceMaes/pokemon-data.json/master/images/pokedex/thumbnails/896.png",
              "hires": "https://raw.githubusercontent.com/IgnaceMaes/pokemon-data.json/master/images/pokedex/hires/896.png"
          }
      },
      {
          "id": 897,
          "name": {
              "english": "Spectrier",
              "japanese": "レイスポス",
              "chinese": "灵幽马",
              "french": "Spectreval"
          },
          "type": [
              "Ghost"
          ],
          "species": "Swift Horse Pokémon",
          "description": "As it dashes through the night, Spectrier absorbs the life-force of sleeping creatures. It craves silence and solitude.",
          "evolution": {},
          "profile": {
              "height": "2 m",
              "weight": "44 kg",
              "gender": "Genderless",
              "ability": [
                  [
                      "Grim-neigh",
                      "false"
                  ]
              ]
          },
          "image": {
              "sprite": "https://raw.githubusercontent.com/IgnaceMaes/pokemon-data.json/master/images/pokedex/sprites/897.png",
              "thumbnail": "https://raw.githubusercontent.com/IgnaceMaes/pokemon-data.json/master/images/pokedex/thumbnails/897.png",
              "hires": "https://raw.githubusercontent.com/IgnaceMaes/pokemon-data.json/master/images/pokedex/hires/897.png"
          }
      },
      {
          "id": 898,
          "name": {
              "english": "Calyrex",
              "japanese": "バドレックス",
              "chinese": "蕾冠王",
              "french": "Sylveroy"
          },
          "type": [
              "Psychic",
              "Grass"
          ],
          "species": "King Pokémon",
          "description": "Calyrex is known in legend as a king that ruled over Galar in ancient times. It has the power to cause hearts to mend and plants to spring forth.",
          "evolution": {},
          "profile": {
              "height": "1 m",
              "weight": "8 kg",
              "gender": "Genderless",
              "ability": [
                  [
                      "Unnerve",
                      "false"
                  ]
              ]
          },
          "image": {
              "sprite": "https://raw.githubusercontent.com/IgnaceMaes/pokemon-data.json/master/images/pokedex/sprites/898.png",
              "thumbnail": "https://raw.githubusercontent.com/IgnaceMaes/pokemon-data.json/master/images/pokedex/thumbnails/898.png",
              "hires": "https://raw.githubusercontent.com/IgnaceMaes/pokemon-data.json/master/images/pokedex/hires/898.png"
          }
      }
  ],
  "links": {
      "self": "/api/pokemon/23.json",
      "prev": "/api/pokemon/22.json",
      "next": null,
      "first": "/api/pokemon/1.json",
      "last": "/api/pokemon/23.json"
  },
  "meta": {
      "currentPage": 23,
      "totalPages": 23,
      "total": 898,
      "estimatedTotal": 898,
      "page": {
          "size": 18,
          "total": 898,
          "estimatedTotal": 898
      }
  }
}
